…
#>   PracticeListSize = col_double(),
#>   AddressLine1 = col_character(),
#>   AddressLine2 = col_character(),
#>   AddressLine3 = col_character(),
#>   AddressLine4 = col_character(),
#>   Postcode = col_character(),
#>   TelephoneNumber = col_character(),
#>   PracticeType = col_character(),
#>   Dispensing = col_character(),
#>   HB = col_character(),
#>   HSCP = col_character(),
#>   DataZone = col_character(),
#>   GPCluster = col_character()
#> )
#> # A tibble: 926 x 15
#>    PracticeCode GPPracticeName  PracticeListSize AddressLine1  AddressLine2
#>           <dbl> <chr>                      <dbl> <chr>         <chr>       
#>  1        10002 Muirhead Medic…             7980 Muirhead Med… Liff Road   
#>  2        10017 The Blue Pract…             6555 The Blue Pra… Crieff Medi…
#>  3        10036 Aberfeldy And …             4680 Aberfeldy An… Taybridge R…
#>  4        10106 Grove Health C…             6079 Grove Health… 129 Dundee …
#>  5        10125 Alyth Health C…             4346 Alyth Health… New Alyth R…
#>  6        10182 Arbroath Medic…             9127 Arbroath Med… 7 Hill Place
#>  7        10233 The Abbey Prac…             6203 Abbey Health… East Abbey …
#>  8        10286 East Practice,…             4454 East Practic… 30 Ponderla…
#>  9        10322 West Practice,…             7719 West Practic… 30 Ponderla…
#> 10        10361 St Margaret's …            10466 St Margaret'… St Margaret…
#> # … with 916 more rows, and 10 more variables: AddressLine3 <chr>,
#> #   AddressLine4 <chr>, Postcode <chr>, TelephoneNumber <chr>,
#> #   PracticeType <chr>, Dispensing <chr>, HB <chr>, HSCP <chr>,
#> #   DataZone <chr>, GPCluster <chr>
…
