Provides an overview of all resources available on the Open Data platform. — list_resources • phsopendata
…
dataset_name
Deprecated. Use dataset_contains instead.

    Value

    A tibble containing details of all available datasets and
resources, or those containing the string specified in the
dataset_contains and resource_contains arguments.

    Examples

list_resources()
#> # A tibble: 1,115 × 7
#>    resource_name         resource_id dataset_name dataset_title dataset_id url  
#>    <chr>                 <chr>       <chr>        <chr>         <chr>      <chr>
#>  1 "Weekly Cases for Al… d08c0fbd-7… viral-respi… Viral Respir… 49dc2d88-… http…
#>  2 "Weekly Cases for CO… 212412ba-c… viral-respi… Viral Respir… 49dc2d88-… http…
#>  3 "Weekly Cases for Al… 170ca9d4-8… viral-respi… Viral Respir… 49dc2d88-… http…
#>  4 "Weekly Cases for CO… 7ca4f902-7… viral-respi… Viral Respir… 49dc2d88-… http…
#>  5 "Weekly Cases for CO… 9c0f7af4-f… viral-respi… Viral Respir… 49dc2d88-… http…
#>  6 "Weekly Admissions i… 35115613-9… viral-respi… Viral Respir… 49dc2d88-… http…
#>  7 "Weekly Admissions b… f2ae2048-c… viral-respi… Viral Respir… 49dc2d88-… http…
#>  8 "Weekly Admissions b… 29a6b2a7-5… viral-respi… Viral Respir… 49dc2d88-… http…
#>  9 " Weekly Admissions … 4715ed6c-0… viral-respi… Viral Respir… 49dc2d88-… http…
#> 10 " Weekly tests and t… 25ad967b-e… viral-respi… Viral Respir… 49dc2d88-… http…
#> # ℹ 1,105 more rows
#> # ℹ 1 more variable: last_modified <dttm>
…
